{
  "project_info": {
    "project_number": "773209972347",
    "firebase_url": "https://journeytothewest-c4985.firebaseio.com",
    "project_id": "journeytothewest-c4985",
    "storage_bucket": "journeytothewest-c4985.appspot.com"
  },
  "client": [
    {
      "client_info": {
        "mobilesdk_app_id": "1:773209972347:android:0e77b8ffa75f0c96ee0cde",
        "android_client_info": {
          "package_name": "haipm.app.journey"
        }
      },
      "oauth_client": [
        {
          "client_id": "773209972347-uo6o78vbf0u8kjqqg5555ns5bspt5rn2.apps.googleusercontent.com",
          "client_type": 1,
          "android_info": {
            "package_name": "haipm.app.journey",
            "certificate_hash": "ab8159178edf3c982672bf4589a136ea51260e85"
          }
        },
        {
          "client_id": "773209972347-l0rde7gu46tjov3srq9osf5gkf15n6d3.apps.googleusercontent.com",
          "client_type": 3
        }
      ],
      "api_key": [
        {
          "current_key": "AIzaSyBqBJCKzNImSOxnpyz8yDEP3DeYeDerkL4"
        }
      ],
      "services": {
        "appinvite_service": {
          "other_platform_oauth_client": [
            {
              "client_id": "773209972347-l0rde7gu46tjov3srq9osf5gkf15n6d3.apps.googleusercontent.com",
              "client_type": 3
            }
          ]
        }
      }
    }
  ],
  "configuration_version": "1"
}